{
  "images" : [
    {
      "filename" : "1456978440_InfiniteBeautifulSpace4K.jpg.7d5450474fcb410e7f5abc5eb1d837bf.jpg",
      "idiom" : "universal",
      "scale" : "1x"
    },
    {
      "idiom" : "universal",
      "scale" : "2x"
    },
    {
      "idiom" : "universal",
      "scale" : "3x"
    }
  ],
  "info" : {
    "author" : "xcode",
    "version" : 1
  }
}
